<svg xmlns="http://www.w3.org/2000/svg" xmlns:xlink="http://www.w3.org/1999/xlink" id="Capa_1" x="0px" y="0px" viewBox="-60 92.1 177.9 117.9" style="enable-background:new -60 92.1 177.9 117.9;" xml:space="preserve">
<style type="text/css">
	.st0{fill:#151616;}
	.st1{fill:#1730FF;}
</style>
<title>colores-logo-suments-complete-fondo-blanco</title>
<path class="st0" d="M16.1,135.4c0,0.9,0.1,1.8,0.4,2.6c0.2,0.6,0.6,1.2,1.1,1.7c0.5,0.4,1,0.7,1.6,0.9c0.6,0.2,1.3,0.3,1.9,0.3  c0.6,0,1.3-0.1,1.9-0.2c0.6-0.1,1.1-0.3,1.7-0.5c0.5-0.2,0.9-0.6,1.2-1c0.3-0.5,0.5-1,0.4-1.6c0-0.5-0.2-1-0.5-1.4  c-0.4-0.4-0.9-0.8-1.4-1.1c-0.6-0.4-1.3-0.7-1.9-0.9l-2.2-0.8c-1.2-0.4-2.4-0.8-3.6-1.3c-1.2-0.5-2.3-1.1-3.3-1.8  c-0.9-0.7-1.8-1.5-2.4-2.5c-0.6-1.1-1-2.3-0.9-3.5c0-1.2,0.2-2.5,0.8-3.6c0.5-1,1.3-1.9,2.2-2.6c1-0.7,2.2-1.2,3.4-1.5  c2.9-0.7,5.9-0.7,8.8,0c1.3,0.3,2.5,1,3.6,1.8c1,0.8,1.8,1.8,2.3,3c0.6,1.3,0.9,2.8,0.9,4.2h-6.6c-0.1-0.6-0.3-1.2-0.6-1.8  c-0.3-0.5-0.6-0.9-1-1.2c-0.4-0.3-0.9-0.5-1.4-0.6c-0.6-0.1-1.1-0.2-1.7-0.2c-1.1-0.1-2.1,0.2-3,0.7c-0.6,0.4-1,1.1-1,1.8  c0,0.5,0.2,0.9,0.5,1.3c0.4,0.4,0.9,0.8,1.4,1c0.6,0.4,1.3,0.7,1.9,0.9l2.3,0.8c1.1,0.4,2.3,0.9,3.6,1.4c1.1,0.5,2.2,1.1,3.3,1.8  c0.9,0.6,1.7,1.4,2.4,2.4c0.6,0.9,0.9,2.1,0.9,3.2c0,1.5-0.3,2.9-1,4.2c-0.6,1.2-1.6,2.1-2.7,2.9c-1.2,0.8-2.5,1.3-3.9,1.7  c-1.5,0.3-3.1,0.5-4.6,0.5c-1.5,0-3-0.2-4.4-0.7c-1.3-0.4-2.5-1.1-3.6-2c-1.1-0.9-2-2.1-2.6-3.4c-0.7-1.5-1-3.1-1.1-4.8L16.1,135.4z  "></path>
<path class="st0" d="M62.2,145.7h-6.8v-3.3c-0.6,0.7-1.4,1.3-2.1,1.8c-0.6,0.5-1.3,0.9-2,1.2c-0.7,0.3-1.3,0.5-2,0.6  c-0.7,0.1-1.4,0.2-2.1,0.2c-1.3,0-2.7-0.2-3.9-0.6c-1.1-0.4-2.1-1.1-3-1.9c-0.8-0.8-1.4-1.8-1.8-2.9c-0.4-1.2-0.7-2.5-0.6-3.8v-20.3  h6.8v19.9c0,0.6,0.1,1.3,0.3,1.9c0.2,0.5,0.4,0.9,0.8,1.3c0.4,0.3,0.8,0.6,1.2,0.7c0.5,0.1,1,0.2,1.5,0.2c0.9,0,1.8-0.2,2.6-0.6  c0.8-0.4,1.6-1,2.2-1.7c0.7-0.7,1.2-1.5,1.6-2.4c0.4-0.9,0.6-1.9,0.6-2.9v-16.4h6.8L62.2,145.7z"></path>
<path class="st0" d="M69.7,116.6h6.8v3.1c1-1.2,2.2-2.2,3.6-2.8c1.1-0.6,2.3-0.8,3.6-0.9c0.7,0,1.3,0.1,2,0.2  c0.6,0.1,1.3,0.4,1.8,0.8c0.7,0.4,1.3,1,1.8,1.6c0.7,0.8,1.3,1.7,1.8,2.6c0.6-0.9,1.3-1.7,2.2-2.5c0.7-0.6,1.4-1.2,2.2-1.6  c0.7-0.4,1.5-0.7,2.2-0.8c0.7-0.2,1.5-0.2,2.2-0.2c1.4,0,2.7,0.2,4,0.8c1.2,0.5,2.2,1.2,3.1,2.2c0.9,0.9,1.5,2,2,3.2  c0.5,1.3,0.7,2.6,0.7,4v19.5h-6.7v-19.2c0-0.8-0.1-1.6-0.4-2.3c-0.2-0.5-0.5-1-0.9-1.5c-0.4-0.3-0.8-0.6-1.3-0.8  c-0.5-0.1-1-0.2-1.6-0.2c-0.7,0-1.4,0.2-2,0.5c-0.7,0.3-1.3,0.8-1.8,1.3c-0.6,0.6-1,1.3-1.3,2c-0.3,0.8-0.5,1.7-0.5,2.5v17.6h-6.8  v-19.3c0-0.8-0.1-1.6-0.3-2.3c-0.2-0.5-0.5-1-0.9-1.5c-0.3-0.3-0.8-0.6-1.2-0.8c-0.4-0.1-0.9-0.2-1.3-0.2c-0.8,0-1.7,0.2-2.4,0.6  c-0.7,0.4-1.4,1-2,1.6c-0.5,0.6-1,1.4-1.3,2.1c-0.3,0.7-0.5,1.4-0.5,2.2v17.4h-6.8L69.7,116.6z"></path>
<path class="st0" d="M14.9,173.5c0.1,1,0.4,2,0.7,3c0.4,0.9,0.8,1.7,1.5,2.5c0.6,0.7,1.3,1.3,2.1,1.7c0.8,0.4,1.6,0.6,2.5,0.6  c1.5,0.1,3-0.4,4.1-1.3c1.2-1.1,2.1-2.5,2.6-4.1h6.2c-0.3,1.6-0.9,3.2-1.8,4.6c-0.8,1.3-1.8,2.5-3,3.4c-1.2,0.9-2.5,1.6-3.8,2.1  c-1.4,0.5-2.9,0.7-4.3,0.7c-2,0-3.9-0.4-5.7-1.3c-1.7-0.8-3.1-2-4.3-3.4c-1.2-1.5-2.2-3.1-2.8-4.9c-0.6-1.9-1-3.9-1-5.9  c0-1.9,0.3-3.8,1-5.6c0.6-1.7,1.5-3.3,2.7-4.7c1.2-1.4,2.7-2.5,4.3-3.3c1.8-0.8,3.7-1.2,5.7-1.2c1.9,0,3.8,0.3,5.5,1.1  c1.6,0.7,3,1.7,4.2,3c1.2,1.3,2.1,2.9,2.7,4.6c0.6,1.8,1,3.7,0.9,5.6v2.6L14.9,173.5z M28.1,168.4c-0.1-0.9-0.3-1.7-0.7-2.5  c-0.3-0.7-0.8-1.4-1.4-1.9c-0.6-0.5-1.3-1-2-1.3c-0.8-0.3-1.6-0.4-2.5-0.4c-0.8,0-1.6,0.2-2.4,0.5c-0.7,0.3-1.4,0.8-1.9,1.3  c-1.2,1.2-1.9,2.7-2.2,4.3H28.1z"></path>
<path class="st0" d="M40.2,157.1H47v3.4c1.1-1.3,2.4-2.4,4-3.1c1.3-0.6,2.8-0.9,4.2-0.9c1.4,0,2.7,0.2,4,0.7c2.2,0.8,4,2.5,4.9,4.8  c0.5,1.2,0.7,2.5,0.7,3.8v20.4h-6.8v-19.4c0-0.7-0.1-1.3-0.3-2c-0.2-0.5-0.5-1-0.9-1.5c-0.4-0.4-0.8-0.7-1.3-0.9  c-0.5-0.2-1-0.3-1.6-0.3c-0.9,0-1.8,0.2-2.6,0.6c-0.8,0.3-1.6,0.8-2.2,1.5c-0.6,0.6-1.2,1.4-1.5,2.2c-0.4,0.8-0.6,1.7-0.6,2.5v17.2  h-6.7V157.1z"></path>
<path class="st0" d="M79.9,149.1v8h5.4v5.5h-5.4v15.8c0,0.7,0.2,1.4,0.6,2c0.3,0.5,0.9,0.8,1.5,0.8h1.3c0.9-0.1,1.8-0.4,2.6-0.8v5.4  c-1.1,0.4-2.2,0.7-3.4,0.9c-0.9,0.1-1.7,0.2-2.6,0.2c-0.9,0-1.8-0.2-2.6-0.5c-0.8-0.4-1.5-0.9-2.2-1.5c-0.6-0.7-1.1-1.5-1.5-2.4  c-0.4-1-0.6-2-0.5-3.1v-16.7H69v-5.5h4.1v-8H79.9z"></path>
<path class="st0" d="M94.5,175.9c0,0.9,0.1,1.7,0.4,2.5c0.2,0.6,0.6,1.2,1.1,1.7c0.5,0.4,1,0.7,1.6,0.9c0.6,0.2,1.3,0.3,1.9,0.3  c0.6,0,1.3,0,1.9-0.1c0.6-0.1,1.1-0.3,1.7-0.5c0.5-0.2,0.9-0.6,1.1-1c0.3-0.5,0.5-1,0.4-1.6c0-0.5-0.2-1-0.5-1.4  c-0.4-0.4-0.8-0.8-1.3-1.1c-0.6-0.4-1.3-0.7-1.9-0.9l-2.2-0.8c-1.2-0.4-2.3-0.8-3.6-1.3c-1.2-0.5-2.3-1.1-3.3-1.8  c-0.9-0.7-1.7-1.5-2.4-2.5c-0.7-1.1-1-2.3-0.9-3.6c0-1.2,0.3-2.5,0.8-3.6c0.5-1,1.3-1.9,2.3-2.6c1-0.7,2.2-1.2,3.4-1.5  c1.4-0.3,2.8-0.5,4.3-0.5c1.5,0,3.1,0.2,4.6,0.6c1.3,0.3,2.5,1,3.6,1.8c1,0.8,1.8,1.8,2.3,3c0.6,1.3,0.9,2.8,1,4.2h-6.6  c-0.1-0.6-0.3-1.2-0.6-1.8c-0.3-0.5-0.6-0.9-1-1.2c-0.4-0.3-0.9-0.5-1.4-0.6c-0.5-0.1-1.1-0.2-1.7-0.2c-1.1-0.1-2.1,0.2-3,0.7  c-0.6,0.4-1,1.1-1,1.8c0,0.5,0.2,0.9,0.5,1.3c0.4,0.4,0.9,0.8,1.4,1.1c0.6,0.3,1.3,0.6,1.9,0.9l2.3,0.8c1.2,0.4,2.4,0.9,3.6,1.4  c1.1,0.5,2.2,1.1,3.3,1.8c0.9,0.6,1.7,1.4,2.4,2.4c0.6,0.9,1,2.1,0.9,3.2c0,1.5-0.3,2.9-1,4.2c-0.6,1.2-1.6,2.1-2.7,2.9  c-1.2,0.8-2.5,1.3-3.9,1.7c-1.5,0.4-3.1,0.5-4.6,0.5c-1.5,0-3-0.2-4.4-0.7c-1.3-0.4-2.5-1.1-3.6-2c-1.1-0.9-2-2.1-2.6-3.4  c-0.7-1.5-1-3.1-1.1-4.8L94.5,175.9z"></path>
<path class="st1" d="M-7.7,149.3c1.4-3.7,6.1-18.1-4.6-27.6c-5.6-5.1-13-7.7-20.5-7.2c-6.7,0.4-13,3.5-17.4,8.6  c-5.8,6.8-8,14-6.6,21.3c0.7,3.4,2,6.6,3.9,9.5c-0.1,0.3-6.9,16.4,4.7,27.5c5,4.9,11.7,7.6,18.7,7.6c7.1,0,14-2.7,19.1-7.7  C-0.8,171.7,0.1,160.6-7.7,149.3z M-47.5,125.4c3.8-4.3,9.1-7,14.9-7.4c0.6,0,1.1,0,1.7,0c6,0.1,11.7,2.3,16.2,6.3  c7.8,7,5.7,17.3,4.3,21.9l-15-13.5c-1.6-1.6-3.8-2.5-6.1-2.6c-2.7,0.2-5.2,1.5-6.8,3.6c-1.8,1.9-2.8,4.4-2.7,7  c0.3,2.3,1.4,4.4,3.1,5.9l14.1,12.1c1.1,0.9,1.8,2.1,2,3.4c0.1,1.9-0.7,3.8-2,5.2c-1.6,2.3-4.7,3-7.2,1.6  c-0.2-0.1-19.4-10.7-22.2-25.4C-54.5,137.6-52.5,131.4-47.5,125.4z M-13,178.8c-9.1,8.8-23.6,8.8-32.8,0c-7.7-7.3-5.9-17-4.7-21.3  c4.9,5.9,10.8,10.8,17.5,14.6c4,2.3,9.1,1.2,11.8-2.5c2-2.2,3-5.1,2.8-8c-0.4-2.2-1.6-4.2-3.3-5.6l-14-12.1c-1-0.9-1.6-2.1-1.8-3.4  c0.2-3.3,2.7-6.1,5.9-6.7c1.4,0,2.6,0.6,3.6,1.5l16.6,15.1C-3.7,160.8-4.2,170.1-13,178.8L-13,178.8z"></path>
</svg>